{
  "name": "DIAL",
  "about_url": "https://gitlab.com/dial/dial-discourse-theme",
  "license_url": "https://gitlab.com/dial/dial-discourse-theme/blob/master/LICENSE",
  "color_schemes": {
    "DIAL Standard": {
      "primary": "222222",
      "secondary": "FFFBF5",
      "tertiary": "579DD8",
      "quaternary": "FBAB21",
      "header_background": "004C64",
      "header_primary": "E8F2F7",
      "highlight": "FBAB21",
      "danger": "A01900",
      "success": "007528",
      "love": "FC2700"
    }
  }
}
